%YAML 1.1
%TAG !u! tag:unity3d.com,2011:
--- !u!1001 &4842653676296773773
PrefabInstance:
  m_ObjectHideFlags: 0
  serializedVersion: 2
  m_Modification:
    m_TransformParent: {fileID: 0}
    m_Modifications:
    - target: {fileID: 4842653675658039786, guid: 12ca437e8fa73f84ba4dacca7b87cde8,
        type: 3}
      propertyPath: m_Name
      value: Basic Canvas
      objectReference: {fileID: 0}
    - target: {fileID: 4842653675658039782, guid: 12ca437e8fa73f84ba4dacca7b87cde8,
        type: 3}
      propertyPath: m_LocalPosition.x
      value: 0
      objectReference: {fileID: 0}
    - target: {fileID: 4842653675658039782, guid: 12ca437e8fa73f84ba4dacca7b87cde8,
        type: 3}
      propertyPath: m_LocalPosition.y
      value: 0
      objectReference: {fileID: 0}
    - target: {fileID: 4842653675658039782, guid: 12ca437e8fa73f84ba4dacca7b87cde8,
        type: 3}
      propertyPath: m_LocalPosition.z
      value: -5.053
      objectReference: {fileID: 0}
    - target: {fileID: 4842653675658039782, guid: 12ca437e8fa73f84ba4dacca7b87cde8,
        type: 3}
      propertyPath: m_LocalRotation.x
      value: 0
      objectReference: {fileID: 0}
    - target: {fileID: 4842653675658039782, guid: 12ca437e8fa73f84ba4dacca7b87cde8,
        type: 3}
      propertyPath: m_LocalRotation.y
      value: 0
      objectReference: {fileID: 0}
    - target: {fileID: 4842653675658039782, guid: 12ca437e8fa73f84ba4dacca7b87cde8,
        type: 3}
      propertyPath: m_LocalRotation.z
      value: 0
      objectReference: {fileID: 0}
    - target: {fileID: 4842653675658039782, guid: 12ca437e8fa73f84ba4dacca7b87cde8,
        type: 3}
      propertyPath: m_LocalRotation.w
      value: 1
      objectReference: {fileID: 0}
    - target: {fileID: 4842653675658039782, guid: 12ca437e8fa73f84ba4dacca7b87cde8,
        type: 3}
      propertyPath: m_RootOrder
      value: 0
      objectReference: {fileID: 0}
    - target: {fileID: 4842653675658039782, guid: 12ca437e8fa73f84ba4dacca7b87cde8,
        type: 3}
      propertyPath: m_LocalEulerAnglesHint.x
      value: 0
      objectReference: {fileID: 0}
    - target: {fileID: 4842653675658039782, guid: 12ca437e8fa73f84ba4dacca7b87cde8,
        type: 3}
      propertyPath: m_LocalEulerAnglesHint.y
      value: 0
      objectReference: {fileID: 0}
    - target: {fileID: 4842653675658039782, guid: 12ca437e8fa73f84ba4dacca7b87cde8,
        type: 3}
      propertyPath: m_LocalEulerAnglesHint.z
      value: 0
      objectReference: {fileID: 0}
    - target: {fileID: 4842653675658039782, guid: 12ca437e8fa73f84ba4dacca7b87cde8,
        type: 3}
      propertyPath: m_AnchoredPosition.x
      value: -6.66
      objectReference: {fileID: 0}
    - target: {fileID: 4842653675658039782, guid: 12ca437e8fa73f84ba4dacca7b87cde8,
        type: 3}
      propertyPath: m_AnchoredPosition.y
      value: 1.43
      objectReference: {fileID: 0}
    - target: {fileID: 4842653675658039782, guid: 12ca437e8fa73f84ba4dacca7b87cde8,
        type: 3}
      propertyPath: m_SizeDelta.x
      value: 800
      objectReference: {fileID: 0}
    - target: {fileID: 4842653675658039782, guid: 12ca437e8fa73f84ba4dacca7b87cde8,
        type: 3}
      propertyPath: m_SizeDelta.y
      value: 461.5
      objectReference: {fileID: 0}
    - target: {fileID: 4842653675658039782, guid: 12ca437e8fa73f84ba4dacca7b87cde8,
        type: 3}
      propertyPath: m_AnchorMin.x
      value: 0
      objectReference: {fileID: 0}
    - target: {fileID: 4842653675658039782, guid: 12ca437e8fa73f84ba4dacca7b87cde8,
        type: 3}
      propertyPath: m_AnchorMin.y
      value: 0
      objectReference: {fileID: 0}
    - target: {fileID: 4842653675658039782, guid: 12ca437e8fa73f84ba4dacca7b87cde8,
        type: 3}
      propertyPath: m_AnchorMax.x
      value: 0
      objectReference: {fileID: 0}
    - target: {fileID: 4842653675658039782, guid: 12ca437e8fa73f84ba4dacca7b87cde8,
        type: 3}
      propertyPath: m_AnchorMax.y
      value: 0
      objectReference: {fileID: 0}
    - target: {fileID: 4842653675658039782, guid: 12ca437e8fa73f84ba4dacca7b87cde8,
        type: 3}
      propertyPath: m_Pivot.x
      value: 0.5
      objectReference: {fileID: 0}
    - target: {fileID: 4842653675658039782, guid: 12ca437e8fa73f84ba4dacca7b87cde8,
        type: 3}
      propertyPath: m_Pivot.y
      value: 0.5
      objectReference: {fileID: 0}
    m_RemovedComponents: []
  m_SourcePrefab: {fileID: 100100000, guid: 12ca437e8fa73f84ba4dacca7b87cde8, type: 3}
